<?xml version="1.0" encoding="iso-8859-1"?>
<!-- Generator: Adobe Illustrator 19.0.0, SVG Export Plug-In . SVG Version: 6.00 Build 0)  -->
<svg xmlns="http://www.w3.org/2000/svg" xmlns:xlink="http://www.w3.org/1999/xlink" version="1.1" id="Capa_1" x="0px" y="0px" viewBox="0 0 512.002 512.002" style="enable-background:new 0 0 512.002 512.002;" xml:space="preserve" width="512" height="512">
<g>
	<polygon style="fill:#A8E5FF;" points="359.001,217.501 344.001,202.501 329.001,217.501 314.001,262.501 344.001,277.501    374.001,262.501  "/>
	<path style="fill:#A8E5FF;" d="M385.501,67.501h-30l45,150h30v-105C430.501,87.688,410.314,67.501,385.501,67.501z"/>
	<path style="fill:#DBF4FF;" d="M355.501,67.501h-53c-24.813,0-45,20.187-45,45v105h30l113-45l0-60   C400.501,87.688,380.314,67.501,355.501,67.501z"/>
	<circle style="fill:#FF4128;" cx="344.001" cy="142.501" r="15"/>
	<path style="fill:#40211D;" d="M385.501,157.501h-30l0,45l45-15l0-15C400.501,164.251,393.751,157.501,385.501,157.501z"/>
	<path style="fill:#60312C;" d="M355.501,157.501l-53,0c-8.25,0-15,6.75-15,15l0,15l83,15l0-30   C370.501,164.251,363.751,157.501,355.501,157.501z"/>
	<polygon style="fill:#FF6337;" points="370.501,187.501 340.501,202.501 370.501,217.501 400.501,217.501 400.501,187.501  "/>
	<rect x="287.501" y="187.501" style="fill:#FF8646;" width="83" height="30"/>
	<polygon style="fill:#FFA754;" points="479.001,352.501 449.001,352.501 347.751,277.501 479.001,277.501  "/>
	<polygon style="fill:#FFCB63;" points="449.001,352.501 344.001,352.501 272.751,277.501 449.001,277.501  "/>
	<polygon style="fill:#FFA754;" points="344.001,352.501 314.001,352.501 242.751,277.501 344.001,277.501  "/>
	<rect x="209.001" y="277.501" style="fill:#FFCB63;" width="105" height="75"/>
	<polygon style="fill:#C27749;" points="464.001,262.501 434.001,277.501 464.001,292.501 494.001,292.501 494.001,262.501  "/>
	<rect x="194.001" y="262.501" style="fill:#E18F4E;" width="270" height="30"/>
	<path style="fill:#DBF4FF;" d="M114.001,172.501h-30v120h50v-100C134.001,181.455,125.047,172.501,114.001,172.501z"/>
	<path style="fill:#FFFFFF;" d="M104.001,192.501c0-11.046-8.954-20-20-20h-20c-11.045,0-20,8.954-20,20v100h60V192.501z"/>
	<path style="fill:#FF1B7C;" d="M134.001,262.501h-30l14.442,87.846c27.33-4.147,41.558-12.846,41.558-12.846   C156.224,287.504,134.001,262.501,134.001,262.501z"/>
	<path style="fill:#FF4996;" d="M18.001,337.501c0,0,24.492,15,71,15c11.08,0,20.895-0.857,29.442-2.154   c-0.318-62.875-14.442-87.846-14.442-87.846h-60C44.001,262.501,21.778,287.504,18.001,337.501z"/>
	<path style="fill:#40211D;" d="M156.501,75.001c0-5.023-2.478-9.458-6.268-12.18c2.46-3.966,3.052-9.011,1.13-13.651   s-5.908-7.79-10.452-8.854c0.755-4.605-0.629-9.493-4.18-13.044c-3.552-3.552-8.439-4.936-13.044-4.18   c-1.065-4.543-4.214-8.53-8.854-10.452s-9.686-1.33-13.651,1.13c-2.722-3.79-7.157-6.268-12.18-6.268s-9.458,2.478-12.18,6.268   c-3.966-2.46-9.011-3.052-13.651-1.13s-7.79,5.908-8.854,10.452c-4.605-0.755-9.493,0.629-13.044,4.18   c-3.552,3.552-4.936,8.439-4.18,13.044c-4.543,1.065-8.53,4.214-10.452,8.854s-1.33,9.686,1.13,13.651   c-3.79,2.722-6.268,7.157-6.268,12.18s2.478,9.458,6.268,12.18c-2.46,3.966-3.052,9.011-1.13,13.651s5.908,7.79,10.452,8.854   c-0.755,4.605,0.629,9.493,4.18,13.044c3.693,3.693,8.833,5.058,13.596,4.094h68.268c4.762,0.964,9.902-0.401,13.596-4.094   c3.552-3.552,4.936-8.439,4.18-13.044c4.543-1.065,8.53-4.214,10.452-8.854s1.33-9.686-1.13-13.651   C154.023,84.458,156.501,80.024,156.501,75.001z"/>
	<path style="fill:#85453D;" d="M89.001,52.501v90c24.853,0,45-20.147,45-45S113.854,52.501,89.001,52.501z"/>
	<path style="fill:#A45E43;" d="M104.001,97.501c0-24.853-6.716-45-15-45c-24.853,0-45,20.147-45,45s20.147,45,45,45   C97.285,142.501,104.001,122.354,104.001,97.501z"/>
	<circle cx="104.001" cy="202.5" r="7.5"/>
	<circle cx="104.001" cy="232.5" r="7.5"/>
	<circle cx="74.001" cy="202.5" r="7.5"/>
	<circle cx="74.001" cy="232.5" r="7.5"/>
	<path d="M494.001,255H379.407l-10-30h76.094c4.143,0,7.5-3.358,7.5-7.5s-3.357-7.5-7.5-7.5h-7.5v-97.5   c0-28.949-23.552-52.5-52.5-52.5h-4v-7.5c0-12.407-10.094-22.5-22.5-22.5h-30c-12.406,0-22.5,10.093-22.5,22.5V60h-4   c-28.948,0-52.5,23.551-52.5,52.5V210h-7.5c-4.143,0-7.5,3.358-7.5,7.5s3.357,7.5,7.5,7.5h76.094l-10,30H194.001   c-4.143,0-7.5,3.358-7.5,7.5v30c0,4.142,3.357,7.5,7.5,7.5h7.5v204.5c0,4.142,3.357,7.5,7.5,7.5s7.5-3.358,7.5-7.5V452h255v52.5   c0,4.142,3.357,7.5,7.5,7.5s7.5-3.358,7.5-7.5V300h7.5c4.143,0,7.5-3.358,7.5-7.5v-30C501.501,258.358,498.144,255,494.001,255z    M329.165,210c-0.017,0-0.034,0-0.051,0h-34.114v-15h98v15h-34.137C358.847,210,329.165,210,329.165,210z M336.501,142.5   c0-4.136,3.364-7.5,7.5-7.5s7.5,3.364,7.5,7.5s-3.364,7.5-7.5,7.5S336.501,146.636,336.501,142.5z M385.501,165   c4.136,0,7.5,3.364,7.5,7.5v7.5h-98v-7.5c0-4.136,3.364-7.5,7.5-7.5H385.501z M321.501,52.5c0-4.136,3.364-7.5,7.5-7.5h30   c4.136,0,7.5,3.364,7.5,7.5V60h-45V52.5z M265.001,112.5c0-20.678,16.822-37.5,37.5-37.5h83c20.678,0,37.5,16.822,37.5,37.5V210   h-15v-37.5c0-12.407-10.094-22.5-22.5-22.5h-20.29c0.833-2.347,1.29-4.871,1.29-7.5c0-12.407-10.094-22.5-22.5-22.5   s-22.5,10.093-22.5,22.5c0,2.629,0.458,5.153,1.29,7.5h-20.29c-12.406,0-22.5,10.093-22.5,22.5V210h-15V112.5z M334.407,225h19.188   l10,30h-39.188L334.407,225z M336.501,300v45h-120v-45H336.501z M216.501,437v-77h255v77H216.501z M471.501,345h-120v-45h120V345z    M486.501,285h-285v-15h112.477c0.049,0,59.998,0,59.998,0c0.049,0,112.526,0,112.526,0V285z"/>
	<path d="M141.501,259.862v-60.148c50.271-3.842,90-45.976,90-97.214c0-4.142-3.357-7.5-7.5-7.5s-7.5,3.358-7.5,7.5   c0,43.343-33.605,78.961-76.125,82.229c-3.362-11.39-13.91-19.729-26.375-19.729h-50c-15.163,0-27.5,12.336-27.5,27.5v67.362   c-5.762,7.573-22.666,33.217-25.979,77.073c-0.212,2.805,1.163,5.492,3.562,6.961c0.748,0.458,13.501,8.091,37.417,12.682v132.517   l-24.872,8.291c-3.929,1.31-6.053,5.558-4.743,9.487c1.048,3.143,3.974,5.13,7.114,5.13c0.786,0,1.586-0.125,2.373-0.387l30-10   c3.063-1.021,5.128-3.887,5.128-7.115V358.808c6.857,0.741,14.35,1.192,22.5,1.192s15.643-0.451,22.5-1.192V494.5   c0,3.228,2.065,6.094,5.128,7.115l30,10c0.787,0.262,1.587,0.387,2.373,0.387c3.141,0,6.066-1.988,7.114-5.13   c1.31-3.929-0.814-8.177-4.743-9.487l-24.872-8.291V356.578c23.916-4.59,36.669-12.224,37.417-12.682   c2.398-1.469,3.773-4.156,3.562-6.961C164.167,293.08,147.263,267.435,141.501,259.862z M64.001,180h50   c6.893,0,12.5,5.607,12.5,12.5V255h-75v-62.5C51.501,185.607,57.108,180,64.001,180z M89.001,345   c-33.186,0-54.672-8.022-63.077-11.876c3.654-35.014,16.779-56.2,21.752-63.124h82.647c4.989,6.947,18.102,28.13,21.755,63.122   C143.652,336.985,122.17,345,89.001,345z"/>
	<path d="M18.868,88.95c-1.368,4.824-1.112,10.034,0.842,14.752c1.954,4.717,5.458,8.582,9.836,11.024   c0.581,4.981,2.812,9.697,6.422,13.306c4.28,4.28,10.019,6.597,15.941,6.586C61.414,144.117,74.533,150,89.001,150   c14.464,0,27.581-5.88,37.086-15.375c0.018,0,0.035,0.001,0.053,0.001c5.907,0,11.626-2.325,15.894-6.593   c3.61-3.61,5.842-8.326,6.423-13.307c4.379-2.443,7.882-6.308,9.835-11.024c1.954-4.717,2.211-9.928,0.843-14.752   c3.11-3.933,4.867-8.845,4.867-13.95s-1.757-10.017-4.867-13.95c1.368-4.824,1.112-10.035-0.842-14.75   c-1.954-4.717-5.457-8.583-9.836-11.026c-0.581-4.98-2.813-9.697-6.423-13.307c-3.61-3.61-8.325-5.841-13.306-6.422   c-2.443-4.379-6.309-7.882-11.025-9.835c-4.717-1.954-9.929-2.211-14.751-0.841C99.019,1.757,94.106,0,89.001,0   s-10.018,1.757-13.95,4.868C70.227,3.5,65.017,3.756,60.3,5.709c-4.717,1.954-8.583,5.457-11.026,9.835   c-4.979,0.582-9.694,2.812-13.306,6.422c-3.609,3.61-5.841,8.326-6.422,13.306c-4.379,2.443-7.882,6.309-9.836,11.026   s-2.21,9.927-0.842,14.751c-3.11,3.933-4.867,8.845-4.867,13.95S15.758,85.017,18.868,88.95z M89.001,135   c-20.678,0-37.5-16.822-37.5-37.5S68.323,60,89.001,60s37.5,16.822,37.5,37.5S109.679,135,89.001,135z M32.144,68.911   c3.204-2.302,4.077-6.692,1.997-10.045c-1.296-2.09-1.505-4.578-0.574-6.826c0.933-2.25,2.84-3.862,5.234-4.423   c3.842-0.9,6.328-4.623,5.69-8.516c-0.398-2.427,0.361-4.806,2.082-6.527c1.722-1.722,4.096-2.481,6.527-2.083   c3.893,0.643,7.616-1.848,8.517-5.69c0.561-2.395,2.172-4.302,4.422-5.233c2.249-0.932,4.736-0.723,6.828,0.574   c3.355,2.079,7.745,1.206,10.045-2C84.348,16.146,86.566,15,89.001,15s4.653,1.146,6.089,3.144   c2.301,3.204,6.692,4.077,10.044,1.998c2.091-1.297,4.581-1.506,6.828-0.574c2.249,0.931,3.861,2.839,4.423,5.235   c0.9,3.841,4.625,6.333,8.516,5.688c2.431-0.398,4.806,0.362,6.526,2.083c1.722,1.722,2.481,4.101,2.083,6.528   c-0.638,3.893,1.849,7.615,5.689,8.516c2.395,0.561,4.303,2.173,5.234,4.423c0.932,2.249,0.723,4.737-0.573,6.826   c-2.08,3.353-1.207,7.743,1.997,10.045c1.998,1.435,3.144,3.654,3.144,6.089s-1.146,4.653-3.143,6.088   c-3.205,2.302-4.078,6.692-1.998,10.045c1.296,2.09,1.505,4.578,0.573,6.828c-0.633,1.527-1.723,2.75-3.102,3.56   c0.101-1.329,0.169-2.667,0.169-4.021c0-28.949-23.552-52.5-52.5-52.5s-52.5,23.551-52.5,52.5c0,1.354,0.068,2.692,0.169,4.021   c-1.38-0.81-2.469-2.033-3.102-3.56c-0.932-2.25-0.723-4.738,0.573-6.828c2.08-3.353,1.207-7.744-1.998-10.045   c-1.997-1.435-3.143-3.653-3.143-6.088S30.146,70.346,32.144,68.911z"/>
	<path d="M269.001,330h15c4.143,0,7.5-3.358,7.5-7.5s-3.357-7.5-7.5-7.5h-15c-4.143,0-7.5,3.358-7.5,7.5S264.858,330,269.001,330z"/>
	<path d="M404.001,330h15c4.143,0,7.5-3.358,7.5-7.5s-3.357-7.5-7.5-7.5h-15c-4.143,0-7.5,3.358-7.5,7.5S399.858,330,404.001,330z"/>
</g>















</svg>
